[gd_scene load_steps=5 format=2]

[ext_resource path="res://Player/Player.gd" type="Script" id=1]
[ext_resource path="res://Assets/player_placeholder.png" type="Texture" id=2]

[sub_resource type="CircleShape2D" id=1]

[sub_resource type="SpriteFrames" id=2]
animations = [ {
"frames": [ ExtResource( 2 ) ],
"loop": true,
"name": "idle",
"speed": 5.0
} ]

[node name="Player" type="KinematicBody2D"]
script = ExtResource( 1 )
move_speed = 800.0

[node name="Collision" type="CollisionShape2D" parent="."]
shape = SubResource( 1 )

[node name="Sprite" type="AnimatedSprite" parent="."]
frames = SubResource( 2 )
animation = "idle"

[node name="Camera" type="Camera2D" parent="."]
